{
    "platforms": [
        [true, false, true, true, false, false],
        [true, true, true, true, true, false],
        [false, true, false, true, true, false],
        [false, true, true, true, false, false],
        [false, true, true, false, false, false],
        [false, false, false, false, false, false]
    ],
    "startPos": {
        "x": 4,
        "z": 1
    },
    "steppedColor": "#d7ea94",
    "lives": 2,
    "jumps": 15,
    "time": 14
}