{
    "platforms": [
        [false, false, false, false, false, false],
        [false, false, false, true, false, false],
        [false, false, false, true, false, false],
        [false, true, true, true, true, true],
        [false, false, false, false, false, false],
        [false, false, false, true, false, false]
    ],
    "startPos": {
        "x": 5,
        "z": 3
    },
    "steppedColor": "#1f9aa3",
    "lives": 3,
    "jumps": 8,
    "time": 10
}