{
    "platforms": [
        [false, false, false, false, false, false],
        [false, false, false, false, false, false],
        [false, true, false, true, false, true],
        [false, false, false, true, false, false],
        [false, false, false, true, false, false],
        [false, true, false, true, false, true]
    ],
    "startPos": {
        "x": 3,
        "z": 3
    },
    "steppedColor": "#f6c04e",
    "lives": 1,
    "jumps": 11,
    "time": 12
}